<?xml version="1.0" encoding="UTF-8" standalone="no"?>
<svg
   xmlns:dc="http://purl.org/dc/elements/1.1/"
   xmlns:cc="http://creativecommons.org/ns#"
   xmlns:rdf="http://www.w3.org/1999/02/22-rdf-syntax-ns#"
   xmlns:svg="http://www.w3.org/2000/svg"
   xmlns="http://www.w3.org/2000/svg"
   xmlns:sodipodi="http://sodipodi.sourceforge.net/DTD/sodipodi-0.dtd"
   xmlns:inkscape="http://www.inkscape.org/namespaces/inkscape"
   width="512"
   height="512"
   version="1.1"
   viewBox="0 0 384 384"
   id="svg3854"
   sodipodi:docname="sunflower.svg"
   inkscape:version="0.92.4 5da689c313, 2019-01-14">
  <metadata
     id="metadata3860">
    <rdf:RDF>
      <cc:Work
         rdf:about="">
        <dc:format>image/svg+xml</dc:format>
        <dc:type
           rdf:resource="http://purl.org/dc/dcmitype/StillImage" />
        <dc:title></dc:title>
      </cc:Work>
    </rdf:RDF>
  </metadata>
  <defs
     id="defs3858" />
  <sodipodi:namedview
     pagecolor="#ffffff"
     bordercolor="#666666"
     borderopacity="1"
     objecttolerance="10"
     gridtolerance="10"
     guidetolerance="10"
     inkscape:pageopacity="0"
     inkscape:pageshadow="2"
     inkscape:window-width="3840"
     inkscape:window-height="2096"
     id="namedview3856"
     showgrid="false"
     inkscape:zoom="7.1210938"
     inkscape:cx="256"
     inkscape:cy="256"
     inkscape:window-x="0"
     inkscape:window-y="36"
     inkscape:window-maximized="1"
     inkscape:current-layer="svg3854" />
  <path
     d="m33.293 117.47c-0.60742 0-1.2077 0.0313-1.7988 0.0908-8.572 0.86361-15.284 7.8369-15.722 16.515-0.01521 0.29897-0.02197 0.59961-0.02197 0.90235v193.24c0 0.30213 0.0068 0.60251 0.02197 0.90088 4.9e-5 9.7e-4 -4.9e-5 2e-3 0 3e-3 0.43792 8.6776 7.1501 15.651 15.722 16.515 0.0015 1.5e-4 0.0029-1.5e-4 0.0044 0 0.29417 0.0296 0.59079 0.0524 0.88916 0.0674 0.29994 0.0152 0.60155 0.022 0.90528 0.022h317.41c9.6875 0 17.543-7.8398 17.543-17.508v-193.24c0-2.8024-0.663-5.4477-1.8354-7.7959l0.0132-0.0161c-1.8605-3.7337-5.021-6.6947-8.8931-8.3203-0.4739-0.19896-0.95733-0.37706-1.4517-0.53466-0.0623-0.02-0.12344-0.0422-0.18603-0.0615-0.18825-0.0577-0.3789-0.10962-0.56983-0.16113-0.16744-0.0455-0.33598-0.0883-0.50537-0.12891-0.17039-0.0405-0.34038-0.0816-0.5127-0.11718-0.31773-0.0662-0.63714-0.12554-0.96093-0.17432-0.11448-0.0171-0.23049-0.0291-0.34571-0.0439-0.26852-0.035-0.53932-0.0636-0.81152-0.0864-0.11359-9e-3 -0.2271-0.0192-0.34131-0.0264-0.37823-0.0243-0.7582-0.041-1.1426-0.041z"
     fill="#f5f5f5"
     opacity=".2"
     stroke="#000"
     stroke-width="7.5"
     id="path3830" />
  <path
     d="m176.08 34.535-122.19 0.19141c-10.027-1.3906-18.23 9.4219-18.23 21.121v59.879c0.61719-0.0664 1.2383-0.10937 1.8711-0.10937h137.36l33.129-39.477z"
     fill="#357af0"
     id="path3832" />
  <path
     d="m206.63 76.16-33.43 39.457h173.22c1.543 0 3.0391 0.19922 4.4844 0.55859l0.0273-20.918c0.0117-8.4297-4.2656-15.711-10.465-19.098z"
     fill="#306ed7"
     fill-rule="evenodd"
     id="path3834" />
  <path
     d="m33.293 106.23h317.41c9.6875 0 17.543 7.8359 17.543 17.508v200.72c0 9.668-7.8555 17.508-17.543 17.508h-317.41c-9.6875 0-17.543-7.8398-17.543-17.508v-200.72c0-9.6719 7.8555-17.508 17.543-17.508z"
     opacity=".3"
     id="path3836" />
  <path
     d="m33.293 113.73h317.41c9.6875 0 17.543 7.8359 17.543 17.508v200.72c0 9.668-7.8555 17.508-17.543 17.508h-317.41c-9.6875 0-17.543-7.8398-17.543-17.508v-200.72c0-9.6719 7.8555-17.508 17.543-17.508z"
     fill="#f5f5f5"
     id="path3838" />
  <path
     d="m33.293 113.73c-9.7188 0-17.543 7.8086-17.543 17.508v200.72c0 9.6992 7.8242 17.508 17.543 17.508h152.07l181.06-226.04c-2.8672-5.7539-8.8086-9.6953-15.711-9.6953z"
     fill="#fff"
     id="path3840" />
  <g
     fill-rule="evenodd"
     id="g3848">
    <path
       d="m119.41 169.24h131.07c3.0742 0 5.5625 2.3008 5.5625 5.1367v9.8516c0 2.8398-2.4883 5.1406-5.5625 5.1406h-131.07c-3.0703 0-5.5625-2.3008-5.5625-5.1406v-9.8516c0-2.8359 2.4922-5.1367 5.5625-5.1367z"
       opacity=".3"
       id="path3842" />
    <path
       d="m119.41 161.74h131.07c3.0742 0 5.5625 2.3008 5.5625 5.1367v9.8516c0 2.8398-2.4883 5.1406-5.5625 5.1406h-131.07c-3.0703 0-5.5625-2.3008-5.5625-5.1406v-9.8516c0-2.8359 2.4922-5.1367 5.5625-5.1367z"
       fill="#f5f5f5"
       opacity=".1"
       stroke="#000"
       stroke-width="3.75"
       id="path3844" />
    <path
       d="m119.41 161.74h131.07c3.0742 0 5.5625 2.3008 5.5625 5.1367v9.8516c0 2.8398-2.4883 5.1406-5.5625 5.1406h-131.07c-3.0703 0-5.5625-2.3008-5.5625-5.1406v-9.8516c0-2.8359 2.4922-5.1367 5.5625-5.1367z"
       fill="#f5f5f5"
       id="path3846" />
  </g>
  <path
     d="m15.697 324.6v7.5c0 9.6682 7.8555 17.508 17.543 17.508h317.42c9.6878 0 17.543-7.8398 17.543-17.508v-7.5c0 9.6682-7.8555 17.508-17.543 17.508h-317.42c-9.6878 0-17.543-7.8398-17.543-17.508z"
     fill="#b3b3b3"
     stroke-width=".99997"
     id="path3850" />
  <path
     transform="scale(.75)"
     d="m234.77 45.746-162.92 0.25586c-13.369-1.8541-24.307 12.563-24.307 28.162v10c0-15.599 10.937-30.016 24.307-28.162l162.92-0.25586 42.586 55.475-0.02149 0.02539h176.62c8.1687 4.4629 13.824 14.001 13.941 25.072l0.01172-9.6074c0.0156-11.24-5.6873-20.949-13.953-25.465h-176.62l0.02149-0.02539-42.586-55.475z"
     style="fill:#f4f8fe;opacity:.1;stroke-width:1.3333"
     id="path3852" />
</svg>
